{
    "teeth_movement": {
        "upper_teeth": {
            "11": {
                "current": {
                    "LeftRight": "0.7 mm",
                    "Rotation": "-1.9 deg",
                    "Angulation": "2.0 deg",
                    "Inclination": "-0.1 deg",
                    "ExtrusionIntrusion": "0.5 mm",
                    "ForwardBackward": "0.3 mm",
                    "Sys_ToothNumber": "11",
                    "Extraction": true,
                    "Attachments": true,
                    "Attachments_Step": "4",
                    "Attachment_Type": "",
                    "Pontics": true,
                    "Torque_Enhancers": true,
                    "Elastic_Buttons": true,
                    "Elastic_Cuts": true
                },
                "updated": {
                    "LeftRight": "0.7 mm",
                    "Rotation": "-1.9 deg",
                    "Angulation": "2.0 deg",
                    "Inclination": "-0.1 deg",
                    "ExtrusionIntrusion": "0.5 mm",
                    "ForwardBackward": "0.3 mm",
                    "Sys_ToothNumber": "11",
                    "Extraction": true,
                    "Attachments": true,
                    "Attachments_Step": "4",
                    "Attachment_Type": "",
                    "Pontics": true,
                    "Torque_Enhancers": true,
                    "Elastic_Buttons": true,
                    "Elastic_Cuts": true
                }
            },
            "12": {
                "current": {
                    "LeftRight": "-0.7 mm",
                    "Rotation": "-41.3 deg",
                    "Angulation": "",
                    "Inclination": "",
                    "ExtrusionIntrusion": "",
                    "ForwardBackward": "-0.9 mm",
                    "Sys_ToothNumber": "12",
                    "Extraction": true,
                    "Attachments": true,
                    "Attachments_Step": "4",
                    "Attachment_Type": "",
                    "Pontics": true,
                    "Torque_Enhancers": true,
                    "Elastic_Buttons": true,
                    "Elastic_Cuts": true
                },
                "updated": {
                    "LeftRight": "-0.7 mm",
                    "Rotation": "-41.3 deg",
                    "Angulation": "",
                    "Inclination": "",
                    "ExtrusionIntrusion": "",
                    "ForwardBackward": "-0.9 mm",
                    "Sys_ToothNumber": "12",
                    "Extraction": true,
                    "Attachments": true,
                    "Attachments_Step": "4",
                    "Attachment_Type": "",
                    "Pontics": true,
                    "Torque_Enhancers": true,
                    "Elastic_Buttons": true,
                    "Elastic_Cuts": true
                }
            },
            "13": {
                "current": {
                    "LeftRight": "0.5 mm",
                    "Rotation": "-31.9 deg",
                    "Angulation": "",
                    "Inclination": "",
                    "ExtrusionIntrusion": "",
                    "ForwardBackward": "1.2 mm",
                    "Sys_ToothNumber": "13",
                    "Extraction": true,
                    "Attachments": true,
                    "Attachments_Step": "4",
                    "Attachment_Type": "",
                    "Pontics": true,
                    "Torque_Enhancers": true,
                    "Elastic_Buttons": true,
                    "Elastic_Cuts": true
                },
                "updated": {
                    "LeftRight": "0.5 mm",
                    "Rotation": "-31.9 deg",
                    "Angulation": "",
                    "Inclination": "",
                    "ExtrusionIntrusion": "",
                    "ForwardBackward": "1.2 mm",
                    "Sys_ToothNumber": "13",
                    "Extraction": true,
                    "Attachments": true,
                    "Attachments_Step": "4",
                    "Attachment_Type": "",
                    "Pontics": true,
                    "Torque_Enhancers": true,
                    "Elastic_Buttons": true,
                    "Elastic_Cuts": true
                }
            },
            "14": {
                "current": {
                    "LeftRight": "0.1 mm",
                    "Rotation": "-1.9 deg",
                    "Angulation": "",
                    "Inclination": "",
                    "ExtrusionIntrusion": "0.0 mm",
                    "ForwardBackward": "1.6 mm",
                    "Sys_ToothNumber": "14",
                    "Extraction": true,
                    "Attachments": true,
                    "Attachments_Step": "4",
                    "Attachment_Type": "",
                    "Pontics": true,
                    "Torque_Enhancers": true,
                    "Elastic_Buttons": true,
                    "Elastic_Cuts": true
                },
                "updated": {
                    "LeftRight": "0.1 mm",
                    "Rotation": "-1.9 deg",
                    "Angulation": "",
                    "Inclination": "",
                    "ExtrusionIntrusion": "0.0 mm",
                    "ForwardBackward": "1.6 mm",
                    "Sys_ToothNumber": "14",
                    "Extraction": true,
                    "Attachments": true,
                    "Attachments_Step": "4",
                    "Attachment_Type": "",
                    "Pontics": true,
                    "Torque_Enhancers": true,
                    "Elastic_Buttons": true,
                    "Elastic_Cuts": true
                }
            },
            "15": {
                "current": {
                    "LeftRight": "0.2 mm",
                    "Rotation": "12.3 deg",
                    "Angulation": "-1.0 deg",
                    "Inclination": "",
                    "ExtrusionIntrusion": "0.0 mm",
                    "ForwardBackward": "1.2 mm",
                    "Sys_ToothNumber": "15",
                    "Extraction": true,
                    "Attachments": true,
                    "Attachments_Step": "4",
                    "Attachment_Type": "",
                    "Pontics": true,
                    "Torque_Enhancers": true,
                    "Elastic_Buttons": true,
                    "Elastic_Cuts": true
                },
                "updated": {
                    "LeftRight": "0.2 mm",
                    "Rotation": "12.3 deg",
                    "Angulation": "-1.0 deg",
                    "Inclination": "",
                    "ExtrusionIntrusion": "0.0 mm",
                    "ForwardBackward": "1.2 mm",
                    "Sys_ToothNumber": "15",
                    "Extraction": true,
                    "Attachments": true,
                    "Attachments_Step": "4",
                    "Attachment_Type": "",
                    "Pontics": true,
                    "Torque_Enhancers": true,
                    "Elastic_Buttons": true,
                    "Elastic_Cuts": true
                }
            },
            "16": {
                "current": {
                    "LeftRight": "-0.1 mm",
                    "Rotation": "1.8 deg",
                    "Angulation": "",
                    "Inclination": "",
                    "ExtrusionIntrusion": "0.0 mm",
                    "ForwardBackward": "1.3 mm",
                    "Sys_ToothNumber": "16",
                    "Extraction": true,
                    "Attachments": true,
                    "Attachments_Step": "4",
                    "Attachment_Type": "",
                    "Pontics": true,
                    "Torque_Enhancers": true,
                    "Elastic_Buttons": true,
                    "Elastic_Cuts": true
                },
                "updated": {
                    "LeftRight": "-0.1 mm",
                    "Rotation": "1.8 deg",
                    "Angulation": "",
                    "Inclination": "",
                    "ExtrusionIntrusion": "0.0 mm",
                    "ForwardBackward": "1.3 mm",
                    "Sys_ToothNumber": "16",
                    "Extraction": true,
                    "Attachments": true,
                    "Attachments_Step": "4",
                    "Attachment_Type": "",
                    "Pontics": true,
                    "Torque_Enhancers": true,
                    "Elastic_Buttons": true,
                    "Elastic_Cuts": true
                }
            },
            "17": {
                "current": {
                    "LeftRight": "",
                    "Rotation": "",
                    "Angulation": "",
                    "Inclination": "",
                    "ExtrusionIntrusion": "",
                    "ForwardBackward": "",
                    "Sys_ToothNumber": 17,
                    "Extraction": true,
                    "Attachments": true,
                    "Attachments_Step": "4",
                    "Attachment_Type": "",
                    "Pontics": true,
                    "Torque_Enhancers": true,
                    "Elastic_Buttons": true,
                    "Elastic_Cuts": true
                },
                "updated": {
                    "LeftRight": "",
                    "Rotation": "",
                    "Angulation": "",
                    "Inclination": "",
                    "ExtrusionIntrusion": "",
                    "ForwardBackward": "",
                    "Sys_ToothNumber": 17,
                    "Extraction": true,
                    "Attachments": true,
                    "Attachments_Step": "4",
                    "Attachment_Type": "",
                    "Pontics": true,
                    "Torque_Enhancers": true,
                    "Elastic_Buttons": true,
                    "Elastic_Cuts": true
                }
            },
            "18": {
                "current": {
                    "LeftRight": "",
                    "Rotation": "",
                    "Angulation": "",
                    "Inclination": "",
                    "ExtrusionIntrusion": "",
                    "ForwardBackward": "",
                    "Sys_ToothNumber": 18,
                    "Extraction": true,
                    "Attachments": true,
                    "Attachments_Step": "4",
                    "Attachment_Type": "",
                    "Pontics": true,
                    "Torque_Enhancers": true,
                    "Elastic_Buttons": true,
                    "Elastic_Cuts": true
                },
                "updated": {
                    "LeftRight": "",
                    "Rotation": "",
                    "Angulation": "",
                    "Inclination": "",
                    "ExtrusionIntrusion": "",
                    "ForwardBackward": "",
                    "Sys_ToothNumber": 18,
                    "Extraction": true,
                    "Attachments": true,
                    "Attachments_Step": "4",
                    "Attachment_Type": "",
                    "Pontics": true,
                    "Torque_Enhancers": true,
                    "Elastic_Buttons": true,
                    "Elastic_Cuts": true
                }
            },
            "21": {
                "current": {
                    "LeftRight": "-0.9 mm",
                    "Rotation": "",
                    "Angulation": "",
                    "Inclination": "",
                    "ExtrusionIntrusion": "",
                    "ForwardBackward": "0.8 mm",
                    "Sys_ToothNumber": "21",
                    "Extraction": true,
                    "Attachments": true,
                    "Attachments_Step": "4",
                    "Attachment_Type": "",
                    "Pontics": true,
                    "Torque_Enhancers": true,
                    "Elastic_Buttons": true,
                    "Elastic_Cuts": true
                },
                "updated": {
                    "LeftRight": "-0.9 mm",
                    "Rotation": "",
                    "Angulation": "",
                    "Inclination": "",
                    "ExtrusionIntrusion": "",
                    "ForwardBackward": "0.8 mm",
                    "Sys_ToothNumber": "21",
                    "Extraction": true,
                    "Attachments": true,
                    "Attachments_Step": "4",
                    "Attachment_Type": "",
                    "Pontics": true,
                    "Torque_Enhancers": true,
                    "Elastic_Buttons": true,
                    "Elastic_Cuts": true
                }
            },
            "22": {
                "current": {
                    "LeftRight": "-1.0 mm",
                    "Rotation": "21.9 deg",
                    "Angulation": "",
                    "Inclination": "",
                    "ExtrusionIntrusion": "",
                    "ForwardBackward": "0.3 mm",
                    "Sys_ToothNumber": "22",
                    "Extraction": true,
                    "Attachments": true,
                    "Attachments_Step": "4",
                    "Attachment_Type": "",
                    "Pontics": true,
                    "Torque_Enhancers": true,
                    "Elastic_Buttons": true,
                    "Elastic_Cuts": true
                },
                "updated": {
                    "LeftRight": "-1.0 mm",
                    "Rotation": "21.9 deg",
                    "Angulation": "",
                    "Inclination": "",
                    "ExtrusionIntrusion": "",
                    "ForwardBackward": "0.3 mm",
                    "Sys_ToothNumber": "22",
                    "Extraction": true,
                    "Attachments": true,
                    "Attachments_Step": "4",
                    "Attachment_Type": "",
                    "Pontics": true,
                    "Torque_Enhancers": true,
                    "Elastic_Buttons": true,
                    "Elastic_Cuts": true
                }
            },
            "23": {
                "current": {
                    "LeftRight": "-0.5 mm",
                    "Rotation": "-12.9 deg",
                    "Angulation": "",
                    "Inclination": "",
                    "ExtrusionIntrusion": "",
                    "ForwardBackward": "1.4 mm",
                    "Sys_ToothNumber": "23",
                    "Extraction": true,
                    "Attachments": true,
                    "Attachments_Step": "4",
                    "Attachment_Type": "",
                    "Pontics": true,
                    "Torque_Enhancers": true,
                    "Elastic_Buttons": true,
                    "Elastic_Cuts": true
                },
                "updated": {
                    "LeftRight": "-0.5 mm",
                    "Rotation": "-12.9 deg",
                    "Angulation": "",
                    "Inclination": "",
                    "ExtrusionIntrusion": "",
                    "ForwardBackward": "1.4 mm",
                    "Sys_ToothNumber": "23",
                    "Extraction": true,
                    "Attachments": true,
                    "Attachments_Step": "4",
                    "Attachment_Type": "",
                    "Pontics": true,
                    "Torque_Enhancers": true,
                    "Elastic_Buttons": true,
                    "Elastic_Cuts": true
                }
            },
            "24": {
                "current": {
                    "LeftRight": "-0.2 mm",
                    "Rotation": "-11.2 deg",
                    "Angulation": "",
                    "Inclination": "",
                    "ExtrusionIntrusion": "",
                    "ForwardBackward": "1.1 mm",
                    "Sys_ToothNumber": "24",
                    "Extraction": true,
                    "Attachments": true,
                    "Attachments_Step": "4",
                    "Attachment_Type": "",
                    "Pontics": true,
                    "Torque_Enhancers": true,
                    "Elastic_Buttons": true,
                    "Elastic_Cuts": true
                },
                "updated": {
                    "LeftRight": "-0.2 mm",
                    "Rotation": "-11.2 deg",
                    "Angulation": "",
                    "Inclination": "",
                    "ExtrusionIntrusion": "",
                    "ForwardBackward": "1.1 mm",
                    "Sys_ToothNumber": "24",
                    "Extraction": true,
                    "Attachments": true,
                    "Attachments_Step": "4",
                    "Attachment_Type": "",
                    "Pontics": true,
                    "Torque_Enhancers": true,
                    "Elastic_Buttons": true,
                    "Elastic_Cuts": true
                }
            },
            "25": {
                "current": {
                    "LeftRight": "-0.2 mm",
                    "Rotation": "",
                    "Angulation": "",
                    "Inclination": "",
                    "ExtrusionIntrusion": "",
                    "ForwardBackward": "0.9 mm",
                    "Sys_ToothNumber": "25",
                    "Extraction": true,
                    "Attachments": true,
                    "Attachments_Step": "4",
                    "Attachment_Type": "",
                    "Pontics": true,
                    "Torque_Enhancers": true,
                    "Elastic_Buttons": true,
                    "Elastic_Cuts": true
                },
                "updated": {
                    "LeftRight": "-0.2 mm",
                    "Rotation": "",
                    "Angulation": "",
                    "Inclination": "",
                    "ExtrusionIntrusion": "",
                    "ForwardBackward": "0.9 mm",
                    "Sys_ToothNumber": "25",
                    "Extraction": true,
                    "Attachments": true,
                    "Attachments_Step": "4",
                    "Attachment_Type": "",
                    "Pontics": true,
                    "Torque_Enhancers": true,
                    "Elastic_Buttons": true,
                    "Elastic_Cuts": true
                }
            },
            "26": {
                "current": {
                    "LeftRight": "-0.1 mm",
                    "Rotation": "",
                    "Angulation": "",
                    "Inclination": "",
                    "ExtrusionIntrusion": "0.0 mm",
                    "ForwardBackward": "0.8 mm",
                    "Sys_ToothNumber": "26",
                    "Extraction": true,
                    "Attachments": true,
                    "Attachments_Step": "4",
                    "Attachment_Type": "",
                    "Pontics": true,
                    "Torque_Enhancers": true,
                    "Elastic_Buttons": true,
                    "Elastic_Cuts": true
                },
                "updated": {
                    "LeftRight": "-0.1 mm",
                    "Rotation": "",
                    "Angulation": "",
                    "Inclination": "",
                    "ExtrusionIntrusion": "0.0 mm",
                    "ForwardBackward": "0.8 mm",
                    "Sys_ToothNumber": "26",
                    "Extraction": true,
                    "Attachments": true,
                    "Attachments_Step": "4",
                    "Attachment_Type": "",
                    "Pontics": true,
                    "Torque_Enhancers": true,
                    "Elastic_Buttons": true,
                    "Elastic_Cuts": true
                }
            },
            "27": {
                "current": {
                    "LeftRight": "",
                    "Rotation": "",
                    "Angulation": "",
                    "Inclination": "",
                    "ExtrusionIntrusion": "",
                    "ForwardBackward": "",
                    "Sys_ToothNumber": 27,
                    "Extraction": true,
                    "Attachments": true,
                    "Attachments_Step": "4",
                    "Attachment_Type": "",
                    "Pontics": true,
                    "Torque_Enhancers": true,
                    "Elastic_Buttons": true,
                    "Elastic_Cuts": true
                },
                "updated": {
                    "LeftRight": "",
                    "Rotation": "",
                    "Angulation": "",
                    "Inclination": "",
                    "ExtrusionIntrusion": "",
                    "ForwardBackward": "",
                    "Sys_ToothNumber": 27,
                    "Extraction": true,
                    "Attachments": true,
                    "Attachments_Step": "4",
                    "Attachment_Type": "",
                    "Pontics": true,
                    "Torque_Enhancers": true,
                    "Elastic_Buttons": true,
                    "Elastic_Cuts": true
                }
            },
            "28": {
                "current": {
                    "LeftRight": "",
                    "Rotation": "",
                    "Angulation": "",
                    "Inclination": "",
                    "ExtrusionIntrusion": "",
                    "ForwardBackward": "",
                    "Sys_ToothNumber": 28,
                    "Extraction": true,
                    "Attachments": true,
                    "Attachments_Step": "4",
                    "Attachment_Type": "",
                    "Pontics": true,
                    "Torque_Enhancers": true,
                    "Elastic_Buttons": true,
                    "Elastic_Cuts": true
                },
                "updated": {
                    "LeftRight": "",
                    "Rotation": "",
                    "Angulation": "",
                    "Inclination": "",
                    "ExtrusionIntrusion": "",
                    "ForwardBackward": "",
                    "Sys_ToothNumber": 28,
                    "Extraction": true,
                    "Attachments": true,
                    "Attachments_Step": "4",
                    "Attachment_Type": "",
                    "Pontics": true,
                    "Torque_Enhancers": true,
                    "Elastic_Buttons": true,
                    "Elastic_Cuts": true
                }
            }
        },
        "lower_teeth": {
            "31": {
                "current": {
                    "LeftRight": "-0.5 mm",
                    "Rotation": "",
                    "Angulation": "",
                    "Inclination": "",
                    "ExtrusionIntrusion": "0.9 mm",
                    "ForwardBackward": "1.2 mm",
                    "Sys_ToothNumber": "31",
                    "Extraction": true,
                    "Attachments": true,
                    "Attachments_Step": "4",
                    "Attachment_Type": "",
                    "Pontics": true,
                    "Torque_Enhancers": true,
                    "Elastic_Buttons": true,
                    "Elastic_Cuts": true
                },
                "updated": {
                    "LeftRight": "-0.5 mm",
                    "Rotation": "",
                    "Angulation": "",
                    "Inclination": "",
                    "ExtrusionIntrusion": "0.9 mm",
                    "ForwardBackward": "1.2 mm",
                    "Sys_ToothNumber": "31",
                    "Extraction": true,
                    "Attachments": true,
                    "Attachments_Step": "4",
                    "Attachment_Type": "",
                    "Pontics": true,
                    "Torque_Enhancers": true,
                    "Elastic_Buttons": true,
                    "Elastic_Cuts": true
                }
            },
            "32": {
                "current": {
                    "LeftRight": "-1.3 mm",
                    "Rotation": "31.2 deg",
                    "Angulation": "",
                    "Inclination": "",
                    "ExtrusionIntrusion": "0.7 mm",
                    "ForwardBackward": "1.6 mm",
                    "Sys_ToothNumber": "32",
                    "Extraction": true,
                    "Attachments": true,
                    "Attachments_Step": "4",
                    "Attachment_Type": "",
                    "Pontics": true,
                    "Torque_Enhancers": true,
                    "Elastic_Buttons": true,
                    "Elastic_Cuts": true
                },
                "updated": {
                    "LeftRight": "-1.3 mm",
                    "Rotation": "31.2 deg",
                    "Angulation": "",
                    "Inclination": "",
                    "ExtrusionIntrusion": "0.7 mm",
                    "ForwardBackward": "1.6 mm",
                    "Sys_ToothNumber": "32",
                    "Extraction": true,
                    "Attachments": true,
                    "Attachments_Step": "4",
                    "Attachment_Type": "",
                    "Pontics": true,
                    "Torque_Enhancers": true,
                    "Elastic_Buttons": true,
                    "Elastic_Cuts": true
                }
            },
            "33": {
                "current": {
                    "LeftRight": "-0.4 mm",
                    "Rotation": "",
                    "Angulation": "",
                    "Inclination": "",
                    "ExtrusionIntrusion": "1.5 mm",
                    "ForwardBackward": "2.7 mm",
                    "Sys_ToothNumber": "33",
                    "Extraction": true,
                    "Attachments": true,
                    "Attachments_Step": "4",
                    "Attachment_Type": "",
                    "Pontics": true,
                    "Torque_Enhancers": true,
                    "Elastic_Buttons": true,
                    "Elastic_Cuts": true
                },
                "updated": {
                    "LeftRight": "-0.4 mm",
                    "Rotation": "",
                    "Angulation": "",
                    "Inclination": "",
                    "ExtrusionIntrusion": "1.5 mm",
                    "ForwardBackward": "2.7 mm",
                    "Sys_ToothNumber": "33",
                    "Extraction": true,
                    "Attachments": true,
                    "Attachments_Step": "4",
                    "Attachment_Type": "",
                    "Pontics": true,
                    "Torque_Enhancers": true,
                    "Elastic_Buttons": true,
                    "Elastic_Cuts": true
                }
            },
            "34": {
                "current": {
                    "LeftRight": "1.0 mm",
                    "Rotation": "",
                    "Angulation": "",
                    "Inclination": "",
                    "ExtrusionIntrusion": "",
                    "ForwardBackward": "1.1 mm",
                    "Sys_ToothNumber": "34",
                    "Extraction": true,
                    "Attachments": true,
                    "Attachments_Step": "4",
                    "Attachment_Type": "",
                    "Pontics": true,
                    "Torque_Enhancers": true,
                    "Elastic_Buttons": true,
                    "Elastic_Cuts": true
                },
                "updated": {
                    "LeftRight": "1.0 mm",
                    "Rotation": "",
                    "Angulation": "",
                    "Inclination": "",
                    "ExtrusionIntrusion": "",
                    "ForwardBackward": "1.1 mm",
                    "Sys_ToothNumber": "34",
                    "Extraction": true,
                    "Attachments": true,
                    "Attachments_Step": "4",
                    "Attachment_Type": "",
                    "Pontics": true,
                    "Torque_Enhancers": true,
                    "Elastic_Buttons": true,
                    "Elastic_Cuts": true
                }
            },
            "35": {
                "current": {
                    "LeftRight": "-0.1 mm",
                    "Rotation": "1.8 deg",
                    "Angulation": "",
                    "Inclination": "",
                    "ExtrusionIntrusion": "",
                    "ForwardBackward": "1.1 mm",
                    "Sys_ToothNumber": "35",
                    "Extraction": true,
                    "Attachments": true,
                    "Attachments_Step": "4",
                    "Attachment_Type": "",
                    "Pontics": true,
                    "Torque_Enhancers": true,
                    "Elastic_Buttons": true,
                    "Elastic_Cuts": true
                },
                "updated": {
                    "LeftRight": "-0.1 mm",
                    "Rotation": "1.8 deg",
                    "Angulation": "",
                    "Inclination": "",
                    "ExtrusionIntrusion": "",
                    "ForwardBackward": "1.1 mm",
                    "Sys_ToothNumber": "35",
                    "Extraction": true,
                    "Attachments": true,
                    "Attachments_Step": "4",
                    "Attachment_Type": "",
                    "Pontics": true,
                    "Torque_Enhancers": true,
                    "Elastic_Buttons": true,
                    "Elastic_Cuts": true
                }
            },
            "36": {
                "current": {
                    "LeftRight": "0.1 mm",
                    "Rotation": "",
                    "Angulation": "",
                    "Inclination": "",
                    "ExtrusionIntrusion": "",
                    "ForwardBackward": "1.3 mm",
                    "Sys_ToothNumber": "36",
                    "Extraction": true,
                    "Attachments": true,
                    "Attachments_Step": "4",
                    "Attachment_Type": "",
                    "Pontics": true,
                    "Torque_Enhancers": true,
                    "Elastic_Buttons": true,
                    "Elastic_Cuts": true
                },
                "updated": {
                    "LeftRight": "0.1 mm",
                    "Rotation": "",
                    "Angulation": "",
                    "Inclination": "",
                    "ExtrusionIntrusion": "",
                    "ForwardBackward": "1.3 mm",
                    "Sys_ToothNumber": "36",
                    "Extraction": true,
                    "Attachments": true,
                    "Attachments_Step": "4",
                    "Attachment_Type": "",
                    "Pontics": true,
                    "Torque_Enhancers": true,
                    "Elastic_Buttons": true,
                    "Elastic_Cuts": true
                }
            },
            "37": {
                "current": {
                    "LeftRight": "",
                    "Rotation": "",
                    "Angulation": "",
                    "Inclination": "",
                    "ExtrusionIntrusion": "",
                    "ForwardBackward": "",
                    "Sys_ToothNumber": 37,
                    "Extraction": true,
                    "Attachments": true,
                    "Attachments_Step": "4",
                    "Attachment_Type": "",
                    "Pontics": true,
                    "Torque_Enhancers": true,
                    "Elastic_Buttons": true,
                    "Elastic_Cuts": true
                },
                "updated": {
                    "LeftRight": "",
                    "Rotation": "",
                    "Angulation": "",
                    "Inclination": "",
                    "ExtrusionIntrusion": "",
                    "ForwardBackward": "",
                    "Sys_ToothNumber": 37,
                    "Extraction": true,
                    "Attachments": true,
                    "Attachments_Step": "4",
                    "Attachment_Type": "",
                    "Pontics": true,
                    "Torque_Enhancers": true,
                    "Elastic_Buttons": true,
                    "Elastic_Cuts": true
                }
            },
            "38": {
                "current": {
                    "LeftRight": "",
                    "Rotation": "",
                    "Angulation": "",
                    "Inclination": "",
                    "ExtrusionIntrusion": "",
                    "ForwardBackward": "",
                    "Sys_ToothNumber": 38,
                    "Extraction": true,
                    "Attachments": true,
                    "Attachments_Step": "4",
                    "Attachment_Type": "",
                    "Pontics": true,
                    "Torque_Enhancers": true,
                    "Elastic_Buttons": true,
                    "Elastic_Cuts": true
                },
                "updated": {
                    "LeftRight": "",
                    "Rotation": "",
                    "Angulation": "",
                    "Inclination": "",
                    "ExtrusionIntrusion": "",
                    "ForwardBackward": "",
                    "Sys_ToothNumber": 38,
                    "Extraction": true,
                    "Attachments": true,
                    "Attachments_Step": "4",
                    "Attachment_Type": "",
                    "Pontics": true,
                    "Torque_Enhancers": true,
                    "Elastic_Buttons": true,
                    "Elastic_Cuts": true
                }
            },
            "41": {
                "current": {
                    "LeftRight": "0.7 mm",
                    "Rotation": "2.9 deg",
                    "Angulation": "",
                    "Inclination": "",
                    "ExtrusionIntrusion": "0.9 mm",
                    "ForwardBackward": "0.6 mm",
                    "Sys_ToothNumber": "41",
                    "Extraction": true,
                    "Attachments": true,
                    "Attachments_Step": "4",
                    "Attachment_Type": "",
                    "Pontics": true,
                    "Torque_Enhancers": true,
                    "Elastic_Buttons": true,
                    "Elastic_Cuts": true
                },
                "updated": {
                    "LeftRight": "0.7 mm",
                    "Rotation": "2.9 deg",
                    "Angulation": "",
                    "Inclination": "",
                    "ExtrusionIntrusion": "0.9 mm",
                    "ForwardBackward": "0.6 mm",
                    "Sys_ToothNumber": "41",
                    "Extraction": true,
                    "Attachments": true,
                    "Attachments_Step": "4",
                    "Attachment_Type": "",
                    "Pontics": true,
                    "Torque_Enhancers": true,
                    "Elastic_Buttons": true,
                    "Elastic_Cuts": true
                }
            },
            "42": {
                "current": {
                    "LeftRight": "0.2 mm",
                    "Rotation": "32.9 deg",
                    "Angulation": "",
                    "Inclination": "",
                    "ExtrusionIntrusion": "0.6 mm",
                    "ForwardBackward": "0.5 mm",
                    "Sys_ToothNumber": "42",
                    "Extraction": true,
                    "Attachments": true,
                    "Attachments_Step": "4",
                    "Attachment_Type": "",
                    "Pontics": true,
                    "Torque_Enhancers": true,
                    "Elastic_Buttons": true,
                    "Elastic_Cuts": true
                },
                "updated": {
                    "LeftRight": "0.2 mm",
                    "Rotation": "32.9 deg",
                    "Angulation": "",
                    "Inclination": "",
                    "ExtrusionIntrusion": "0.6 mm",
                    "ForwardBackward": "0.5 mm",
                    "Sys_ToothNumber": "42",
                    "Extraction": true,
                    "Attachments": true,
                    "Attachments_Step": "4",
                    "Attachment_Type": "",
                    "Pontics": true,
                    "Torque_Enhancers": true,
                    "Elastic_Buttons": true,
                    "Elastic_Cuts": true
                }
            },
            "43": {
                "current": {
                    "LeftRight": "-0.5 mm",
                    "Rotation": "4.1 deg",
                    "Angulation": "",
                    "Inclination": "",
                    "ExtrusionIntrusion": "1.0 mm",
                    "ForwardBackward": "1.3 mm",
                    "Sys_ToothNumber": "43",
                    "Extraction": true,
                    "Attachments": true,
                    "Attachments_Step": "4",
                    "Attachment_Type": "",
                    "Pontics": true,
                    "Torque_Enhancers": true,
                    "Elastic_Buttons": true,
                    "Elastic_Cuts": true
                },
                "updated": {
                    "LeftRight": "-0.5 mm",
                    "Rotation": "4.1 deg",
                    "Angulation": "",
                    "Inclination": "",
                    "ExtrusionIntrusion": "1.0 mm",
                    "ForwardBackward": "1.3 mm",
                    "Sys_ToothNumber": "43",
                    "Extraction": true,
                    "Attachments": true,
                    "Attachments_Step": "4",
                    "Attachment_Type": "",
                    "Pontics": true,
                    "Torque_Enhancers": true,
                    "Elastic_Buttons": true,
                    "Elastic_Cuts": true
                }
            },
            "44": {
                "current": {
                    "LeftRight": "-0.6 mm",
                    "Rotation": "16.2 deg",
                    "Angulation": "",
                    "Inclination": "",
                    "ExtrusionIntrusion": "",
                    "ForwardBackward": "1.9 mm",
                    "Sys_ToothNumber": "44",
                    "Extraction": true,
                    "Attachments": true,
                    "Attachments_Step": "4",
                    "Attachment_Type": "",
                    "Pontics": true,
                    "Torque_Enhancers": true,
                    "Elastic_Buttons": true,
                    "Elastic_Cuts": true
                },
                "updated": {
                    "LeftRight": "-0.6 mm",
                    "Rotation": "16.2 deg",
                    "Angulation": "",
                    "Inclination": "",
                    "ExtrusionIntrusion": "",
                    "ForwardBackward": "1.9 mm",
                    "Sys_ToothNumber": "44",
                    "Extraction": true,
                    "Attachments": true,
                    "Attachments_Step": "4",
                    "Attachment_Type": "",
                    "Pontics": true,
                    "Torque_Enhancers": true,
                    "Elastic_Buttons": true,
                    "Elastic_Cuts": true
                }
            },
            "45": {
                "current": {
                    "LeftRight": "-0.3 mm",
                    "Rotation": "17.7 deg",
                    "Angulation": "",
                    "Inclination": "",
                    "ExtrusionIntrusion": "0.8 mm",
                    "ForwardBackward": "1.5 mm",
                    "Sys_ToothNumber": "45",
                    "Extraction": true,
                    "Attachments": true,
                    "Attachments_Step": "4",
                    "Attachment_Type": "",
                    "Pontics": true,
                    "Torque_Enhancers": true,
                    "Elastic_Buttons": true,
                    "Elastic_Cuts": true
                },
                "updated": {
                    "LeftRight": "-0.3 mm",
                    "Rotation": "17.7 deg",
                    "Angulation": "",
                    "Inclination": "",
                    "ExtrusionIntrusion": "0.8 mm",
                    "ForwardBackward": "1.5 mm",
                    "Sys_ToothNumber": "45",
                    "Extraction": true,
                    "Attachments": true,
                    "Attachments_Step": "4",
                    "Attachment_Type": "",
                    "Pontics": true,
                    "Torque_Enhancers": true,
                    "Elastic_Buttons": true,
                    "Elastic_Cuts": true
                }
            },
            "46": {
                "current": {
                    "LeftRight": "0.1 mm",
                    "Rotation": "",
                    "Angulation": "",
                    "Inclination": "",
                    "ExtrusionIntrusion": "",
                    "ForwardBackward": "0.8 mm",
                    "Sys_ToothNumber": "46",
                    "Extraction": true,
                    "Attachments": true,
                    "Attachments_Step": "4",
                    "Attachment_Type": "",
                    "Pontics": true,
                    "Torque_Enhancers": true,
                    "Elastic_Buttons": true,
                    "Elastic_Cuts": true
                },
                "updated": {
                    "LeftRight": "0.1 mm",
                    "Rotation": "",
                    "Angulation": "",
                    "Inclination": "",
                    "ExtrusionIntrusion": "",
                    "ForwardBackward": "0.8 mm",
                    "Sys_ToothNumber": "46",
                    "Extraction": true,
                    "Attachments": true,
                    "Attachments_Step": "4",
                    "Attachment_Type": "",
                    "Pontics": true,
                    "Torque_Enhancers": true,
                    "Elastic_Buttons": true,
                    "Elastic_Cuts": true
                }
            },
            "47": {
                "current": {
                    "LeftRight": "",
                    "Rotation": "",
                    "Angulation": "",
                    "Inclination": "",
                    "ExtrusionIntrusion": "",
                    "ForwardBackward": "",
                    "Sys_ToothNumber": 47,
                    "Extraction": true,
                    "Attachments": true,
                    "Attachments_Step": "4",
                    "Attachment_Type": "",
                    "Pontics": true,
                    "Torque_Enhancers": true,
                    "Elastic_Buttons": true,
                    "Elastic_Cuts": true
                },
                "updated": {
                    "LeftRight": "",
                    "Rotation": "",
                    "Angulation": "",
                    "Inclination": "",
                    "ExtrusionIntrusion": "",
                    "ForwardBackward": "",
                    "Sys_ToothNumber": 47,
                    "Extraction": true,
                    "Attachments": true,
                    "Attachments_Step": "4",
                    "Attachment_Type": "",
                    "Pontics": true,
                    "Torque_Enhancers": true,
                    "Elastic_Buttons": true,
                    "Elastic_Cuts": true
                }
            },
            "48": {
                "current": {
                    "LeftRight": "",
                    "Rotation": "",
                    "Angulation": "",
                    "Inclination": "",
                    "ExtrusionIntrusion": "",
                    "ForwardBackward": "",
                    "Sys_ToothNumber": 48,
                    "Extraction": true,
                    "Attachments": true,
                    "Attachments_Step": "4",
                    "Attachment_Type": "",
                    "Pontics": true,
                    "Torque_Enhancers": true,
                    "Elastic_Buttons": true,
                    "Elastic_Cuts": true
                },
                "updated": {
                    "LeftRight": "",
                    "Rotation": "",
                    "Angulation": "",
                    "Inclination": "",
                    "ExtrusionIntrusion": "",
                    "ForwardBackward": "",
                    "Sys_ToothNumber": 48,
                    "Extraction": true,
                    "Attachments": true,
                    "Attachments_Step": "4",
                    "Attachment_Type": "",
                    "Pontics": true,
                    "Torque_Enhancers": true,
                    "Elastic_Buttons": true,
                    "Elastic_Cuts": true
                }
            }
        }
    },
    "ipr": {
        "upper_teeth": {
            "UR_8 / UR_7": {
                "current": {
                    "IPR": false,
                    "Before_Step": "",
                    "Amount": ""
                },
                "updated": {
                    "IPR": false,
                    "Before_Step": "",
                    "Amount": ""
                }
            },
            "UR_7 / UR_6": {
                "current": {
                    "IPR": false,
                    "Before_Step": "",
                    "Amount": ""
                },
                "updated": {
                    "IPR": false,
                    "Before_Step": "",
                    "Amount": ""
                }
            },
            "UR_6 / UR_5": {
                "current": {
                    "IPR": false,
                    "Before_Step": "",
                    "Amount": ""
                },
                "updated": {
                    "IPR": false,
                    "Before_Step": "",
                    "Amount": ""
                }
            },
            "UR_5 / UR_4": {
                "current": {
                    "IPR": false,
                    "Before_Step": "",
                    "Amount": ""
                },
                "updated": {
                    "IPR": false,
                    "Before_Step": "",
                    "Amount": ""
                }
            },
            "UR_4 / UR_3": {
                "current": {
                    "IPR": true,
                    "Before_Step": 5,
                    "Amount": 0.4
                },
                "updated": {
                    "IPR": true,
                    "Before_Step": 5,
                    "Amount": 0.4
                }
            },
            "UR_3 / UR_2": {
                "current": {
                    "IPR": false,
                    "Before_Step": "",
                    "Amount": ""
                },
                "updated": {
                    "IPR": false,
                    "Before_Step": "",
                    "Amount": ""
                }
            },
            "UR_2 / UR_1": {
                "current": {
                    "IPR": false,
                    "Before_Step": "",
                    "Amount": ""
                },
                "updated": {
                    "IPR": false,
                    "Before_Step": "",
                    "Amount": ""
                }
            },
            "UR_1 / UR_0": {
                "current": {
                    "IPR": true,
                    "Before_Step": 3,
                    "Amount": 0.6
                },
                "updated": {
                    "IPR": true,
                    "Before_Step": 3,
                    "Amount": 0.6
                }
            },
            "UL_1 / UL_2": {
                "current": {
                    "IPR": true,
                    "Before_Step": 1,
                    "Amount": 0.8
                },
                "updated": {
                    "IPR": true,
                    "Before_Step": 1,
                    "Amount": 0.8
                }
            },
            "UL_2 / UL_3": {
                "current": {
                    "IPR": false,
                    "Before_Step": "",
                    "Amount": ""
                },
                "updated": {
                    "IPR": false,
                    "Before_Step": "",
                    "Amount": ""
                }
            },
            "UL_3 / UL_4": {
                "current": {
                    "IPR": false,
                    "Before_Step": "",
                    "Amount": ""
                },
                "updated": {
                    "IPR": false,
                    "Before_Step": "",
                    "Amount": ""
                }
            },
            "UL_4 / UL_5": {
                "current": {
                    "IPR": false,
                    "Before_Step": "",
                    "Amount": ""
                },
                "updated": {
                    "IPR": false,
                    "Before_Step": "",
                    "Amount": ""
                }
            },
            "UL_5 / UL_6": {
                "current": {
                    "IPR": false,
                    "Before_Step": "",
                    "Amount": ""
                },
                "updated": {
                    "IPR": false,
                    "Before_Step": "",
                    "Amount": ""
                }
            },
            "UL_6 / UL_7": {
                "current": {
                    "IPR": false,
                    "Before_Step": "",
                    "Amount": ""
                },
                "updated": {
                    "IPR": false,
                    "Before_Step": "",
                    "Amount": ""
                }
            },
            "UL_7 / UL_8": {
                "current": {
                    "IPR": false,
                    "Before_Step": "",
                    "Amount": ""
                },
                "updated": {
                    "IPR": false,
                    "Before_Step": "",
                    "Amount": ""
                }
            }
        },
        "lower_teeth": {
            "LR_8 / LR_7": {
                "current": {
                    "IPR": false,
                    "Before_Step": "",
                    "Amount": ""
                },
                "updated": {
                    "IPR": false,
                    "Before_Step": "",
                    "Amount": ""
                }
            },
            "LR_7 / LR_6": {
                "current": {
                    "IPR": false,
                    "Before_Step": "",
                    "Amount": ""
                },
                "updated": {
                    "IPR": false,
                    "Before_Step": "",
                    "Amount": ""
                }
            },
            "LR_6 / LR_5": {
                "current": {
                    "IPR": false,
                    "Before_Step": "",
                    "Amount": ""
                },
                "updated": {
                    "IPR": false,
                    "Before_Step": "",
                    "Amount": ""
                }
            },
            "LR_5 / LR_4": {
                "current": {
                    "IPR": true,
                    "Before_Step": 10,
                    "Amount": 0.3
                },
                "updated": {
                    "IPR": true,
                    "Before_Step": 10,
                    "Amount": 0.3
                }
            },
            "LR_4 / LR_3": {
                "current": {
                    "IPR": false,
                    "Before_Step": "",
                    "Amount": ""
                },
                "updated": {
                    "IPR": false,
                    "Before_Step": "",
                    "Amount": ""
                }
            },
            "LR_3 / LR_2": {
                "current": {
                    "IPR": true,
                    "Before_Step": 9,
                    "Amount": 0.9
                },
                "updated": {
                    "IPR": true,
                    "Before_Step": 9,
                    "Amount": 0.9
                }
            },
            "LR_2 / LR_1": {
                "current": {
                    "IPR": false,
                    "Before_Step": "",
                    "Amount": ""
                },
                "updated": {
                    "IPR": false,
                    "Before_Step": "",
                    "Amount": ""
                }
            },
            "LR_1 / LR_0": {
                "current": {
                    "IPR": false,
                    "Before_Step": "",
                    "Amount": ""
                },
                "updated": {
                    "IPR": false,
                    "Before_Step": "",
                    "Amount": ""
                }
            },
            "LL_1 / LL_2": {
                "current": {
                    "IPR": true,
                    "Before_Step": 5,
                    "Amount": 0.3
                },
                "updated": {
                    "IPR": true,
                    "Before_Step": 5,
                    "Amount": 0.3
                }
            },
            "LL_2 / LL_3": {
                "current": {
                    "IPR": false,
                    "Before_Step": "",
                    "Amount": ""
                },
                "updated": {
                    "IPR": false,
                    "Before_Step": "",
                    "Amount": ""
                }
            },
            "LL_3 / LL_4": {
                "current": {
                    "IPR": false,
                    "Before_Step": "",
                    "Amount": ""
                },
                "updated": {
                    "IPR": false,
                    "Before_Step": "",
                    "Amount": ""
                }
            },
            "LL_4 / LL_5": {
                "current": {
                    "IPR": false,
                    "Before_Step": "",
                    "Amount": ""
                },
                "updated": {
                    "IPR": false,
                    "Before_Step": "",
                    "Amount": ""
                }
            },
            "LL_5 / LL_6": {
                "current": {
                    "IPR": false,
                    "Before_Step": "",
                    "Amount": ""
                },
                "updated": {
                    "IPR": false,
                    "Before_Step": "",
                    "Amount": ""
                }
            },
            "LL_6 / LL_7": {
                "current": {
                    "IPR": false,
                    "Before_Step": "",
                    "Amount": ""
                },
                "updated": {
                    "IPR": false,
                    "Before_Step": "",
                    "Amount": ""
                }
            },
            "LL_7 / LL_8": {
                "current": {
                    "IPR": false,
                    "Before_Step": "",
                    "Amount": ""
                },
                "updated": {
                    "IPR": false,
                    "Before_Step": "",
                    "Amount": ""
                }
            }
        }
    },
    "Bite_Record": {
        "rejection_reason": "testtttt"
    },
    "Clinical_protocol": {
        "Clinical_protocol_feedback": "testtttt"
    }
}